*** Life<FredkinCell> 5x2 ***

Generation = 0, Population = 10.
00
00
00
00
00

Generation = 1, Population = 6.
--
11
11
11
--

Generation = 2, Population = 6.
00
--
22
--
00

Generation = 3, Population = 6.
11
--
33
--
11

Generation = 4, Population = 6.
22
--
44
--
22

Generation = 5, Population = 6.
33
--
55
--
33

Generation = 6, Population = 6.
44
--
66
--
44

Generation = 7, Population = 6.
55
--
77
--
55

Generation = 8, Population = 6.
66
--
88
--
66

Generation = 9, Population = 6.
77
--
99
--
77

Generation = 10, Population = 6.
88
--
++
--
88

Generation = 11, Population = 6.
99
--
++
--
99

Generation = 12, Population = 6.
++
--
++
--
++

Generation = 13, Population = 6.
++
--
++
--
++

Generation = 14, Population = 6.
++
--
++
--
++

Generation = 15, Population = 6.
++
--
++
--
++

Generation = 16, Population = 6.
++
--
++
--
++

*** Life<FredkinCell> 4x3 ***

Generation = 0, Population = 12.
000
000
000
000

Generation = 2, Population = 6.
---
202
202
---

Generation = 4, Population = 6.
121
---
---
121

*** Life<FredkinCell> 3x9 ***

Generation = 0, Population = 26.
000000000
0000000-0
000000000

Generation = 1, Population = 14.
-111111--
1-----1--
-111111--

Generation = 2, Population = 7.
-2-----0-
-0---0-0-
-2-----0-

Generation = 3, Population = 18.
031--1110
1-0-0---0
031--1110

Generation = 4, Population = 6.
---1-2---
-----0-0-
---1-2---

Generation = 5, Population = 10.
--1--311-
----0---0
--1--311-

Generation = 6, Population = 11.
-3-1-4-2-
---0-0-0-
-3-1-4-2-

Generation = 7, Population = 12.
0--2-5-30
--0-----0
0--2-5-30

Generation = 8, Population = 7.
-3-----4-
-0-0---0-
-3-----4-

*** Life<FredkinCell> 5x5 ***

Generation = 0, Population = 23.
00000
00000
00000
0000-
0000-

Generation = 2, Population = 11.
-2-2-
2-0--
-0-00
2----
-220-

Generation = 4, Population = 13.
-2-21
2-0-2
-0-22
-----
0422-

Generation = 6, Population = 13.
-2241
-----
10-4-
3-1-1
24-4-

Generation = 8, Population = 13.
-4-43
3-1-3
-2-42
-----
2634-

Generation = 10, Population = 13.
-4363
-----
12-6-
4-2-2
46-6-

Generation = 12, Population = 13.
-6-65
4-2-4
-4-62
-----
4846-

*** Life<FredkinCell> 2x15 ***

Generation = 0, Population = 29.
000000000000000
00000000000000-

Generation = 2, Population = 25.
0-22222222222-2
0-2222222222--0

Generation = 4, Population = 23.
212-4444444-414
212-444444---1-

Generation = 6, Population = 19.
232-4-666-6-636
232-4-66--3--3-

*** Life<FredkinCell> 5x11 ***

Generation = 0, Population = 19.
-00-0--0---
-00--0----0
--------000
-0--0--00-0
---0-00----

Generation = 2, Population = 27.
10-0-0101-1
10---------
-01011--0--
-0-0----012
-1--1-20-01

Generation = 4, Population = 24.
-0-------01
120-----002
-212---1202
1--2-1110--
----1---1--

*** Life<FredkinCell> 1x9 ***

Generation = 0, Population = 8.
0000-0000

Generation = 2, Population = 4.
-00---00-

Generation = 4, Population = 4.
2--2-2--2

Generation = 6, Population = 8.
2222-2222

*** Life<FredkinCell> 2x11 ***

Generation = 0, Population = 7.
-------00--
-00-0--00--

Generation = 2, Population = 14.
-----010010
12-0-1-0010

Generation = 4, Population = 11.
---11--22-0
--10-310--0

Generation = 6, Population = 13.
-0013--2-22
243--51--3-

Generation = 8, Population = 9.
0-----1-3--
46---73-25-

Generation = 10, Population = 9.
--1-4-----3
-84-19---72

*** Life<FredkinCell> 6x17 ***

Generation = 0, Population = 10.
-----------------
--0-----0--------
--0-------0-----0
-0---------------
----------------0
-------00-0------

Generation = 2, Population = 26.
--1-------0-----0
01--0-0---1------
0---0---1---0-0--
--00---0--1------
--0-------1---0--
-0---012-0--0----

Generation = 4, Population = 28.
--1-------2------
0-1-2-01--3-1----
2-----------0----
-1---0-00-3------
------------1-0-0
-0001-1-1--10-1--

Generation = 6, Population = 36.
--3-1---0-4------
-2----2311--3-0--
4-----------2---0
01-1-00--0-10-1--
0---------3------
12--3-131113-0--1

*** Life<FredkinCell> 2x9 ***

Generation = 0, Population = 8.
0-------0
0-000-00-

Generation = 2, Population = 9.
--1---1--
20202--20

Generation = 4, Population = 7.
2-3---1-1
4-4----4-

Generation = 6, Population = 6.
4-------1
6---30-4-

Generation = 8, Population = 5.
--4---1--
---15-1--

Generation = 10, Population = 9.
5-4---3-1
-053-1--1

Generation = 12, Population = 8.
5-------3
7-756-25-

Generation = 14, Population = 9.
--6---4--
91958--72

Generation = 16, Population = 7.
7-8---4-4
+-+----9-

Generation = 18, Population = 6.
9-------4
+---91-9-

Generation = 20, Population = 5.
--9---4--
---6+-3--

*** Life<FredkinCell> 2x2 ***

Generation = 0, Population = 4.
00
00

Generation = 2, Population = 0.
--
--

Generation = 4, Population = 0.
--
--

Generation = 6, Population = 0.
--
--

Generation = 8, Population = 0.
--
--

Generation = 10, Population = 0.
--
--

*** Life<FredkinCell> 9x20 ***

Generation = 0, Population = 60.
-----0----0---0--0--
-0------0--0---0-00-
000--0--------000-0-
0-0--0---00-00-0--0-
00--000--0-0--------
-0--0---00-----00---
-----0-0-0-----0--0-
-000---0-00-0-0-0-00
-----------00---00--

Generation = 2, Population = 91.
0100---01-0------200
0-00-00-----10--1001
020---10-11110----0-
--21----10212212--2-
-00-0-210--0-10-1---
021--1----11---02110
00-10-0----010------
1--2---2--21---12102
-----0-1--0201--02-1

Generation = 4, Population = 92.
-12-1-----01-1-00--0
-1---2-1-1--101232--
0-2-0112---31--1-000
1--300-11241423--1--
0---02-100-011003---
0---2--------0-2-112
2-11-----0-212-1-0-0
-----1--1-232-1--3-2
10--1-0-1--403--0-13

Generation = 6, Population = 88.
-14010-22023-31002-0
0--01--30--1--1-5-01
2321--1--1--3--32--2
---502-334--44----3-
0---2-31-0--31-251--
---04-01-1-2----4--2
--3-1-0---1----3--20
2--40-0431----1-3-12
321---0----4-5-----3

Generation = 8, Population = 94.
-34--202---305--242-
23-213-3020---3--3-3
2-----14----511---1-
1135--0-3------30-3-
-1-1-3332---31--73-1
121-61-11--20---611-
41--1-02-1-2-2-3-1--
41-6--2-3-3-3-1-341-
32302---311------225

Generation = 10, Population = 89.
-36----23-2--72--641
--24--0--222-----51-
2--211---33-7-14--33
-3---30-56-154---3-0
------554---3-23----
--3-61-3--3-010-6133
--32----012-22--0131
---8--455--43--354-3
-43-412-----25--0247

Generation = 12, Population = 89.
-56---04--4419-1----
3-----040------365--
2-22-1--0--39-36-23-
---6-3-45--35---13-2
0-2---5--0--3--5----
135-8-2-2-52-3-3635-
5-3---1-----4203---3
-31--1455-4-512556-3
465261-2-1-4----044-

Generation = 14, Population = 96.
-7----044--41+-3--5-
5-251-06-33312456-2-
4-42131---439156-4-3
--481-1---53---5-3--
--42-376--0---3---12
-37---2--3--15-56373
-23330120-2--22--145
-33-01-7734----7-6--
---2-1-4-1--2----6--

*** Life<FredkinCell> 5x3 ***

Generation = 0, Population = 14.
00-
000
000
000
000

Generation = 2, Population = 8.
0--
200
--2
202
---

Generation = 4, Population = 8.
---
200
--2
402
--1

Generation = 6, Population = 10.
--1
400
1--
604
1-3

*** Life<FredkinCell> 10x6 ***

Generation = 0, Population = 39.
0--000
0-0-00
00-0-0
0000-0
--0--0
-00000
----00
-0-000
0-0-00
-00000

Generation = 2, Population = 28.
2--22-
010-0-
-0-21-
0-200-
-1---0
-2----
0-1122
-01---
---0--
02--2-

Generation = 4, Population = 27.
-----1
0-2---
2-0-3-
014--0
030---
04--2-
----24
---2--
10101-
--202-

Generation = 6, Population = 34.
4-133-
22--12
220-30
-3---0
2--111
-41--1
--1-26
1-14-2
-0-0--
23---1

Generation = 8, Population = 31.
---33-
42----
--2-3-
2-5-10
---3--
-61041
-012--
12-41-
-2322-
43-2-1

Generation = 10, Population = 34.
-1-5-2
---122
2-4---
2-7---
---522
1--043
0-34-8
-41614
3---21
633-31

Generation = 12, Population = 29.
6-27-4
64-1--
-26---
4-9-2-
-30--2
----65
223-3-
3--83-
--3---
6--331

Generation = 14, Population = 29.
8-4-44
-4-333
-2--5-
44-1-1
-----4
-----5
-2-638
-5-+-6
-43---
64-5-3

*** Life<FredkinCell> 7x17 ***

Generation = 0, Population = 15.
0---------0-0--00
----------0------
-----------------
-0-------0-------
0-------000------
-----------0---0-
------------0----

Generation = 1, Population = 31.
-0-------01--0011
0--------0100--00
-0-------00------
--0------1-------
-------0111----0-
0-------00----0-0
-------------0-0-

Generation = 2, Population = 30.
--0-----0----1-2-
-0------01--1----
--------01--0--00
---0---0--0----0-
0-0---012-20-----
-0---------------
0-------00--0-0--

Generation = 3, Population = 48.
---0---01-------1
0------01-102---0
-0-0-------0100-1
0---0--10-1-0-01-
-0---0123--10--0-
0-----00-0000-0--
-------01100---0-

Generation = 4, Population = 38.
0-0-0-0--0100--22
------0---21--00-
0---------0----02
-0-----------0---
0-0--12---2-10010
-------1--1----0-
0--------21-----0

Generation = 5, Population = 52.
------10112111--3
--0-0010--3--0110
------0--11--0--3
0----00------1---
-0-0023--13-21-21
--0--0--0--000-10
-0-----013-0-----

Generation = 6, Population = 46.
--0-0--1--3-----4
-0--1----1---1--1
0-0-00--02-01---4
---0--11------01-
--01---2-241-2---
-0---1--10--1----
0----00124-1-0-00

Generation = 7, Population = 53.
----101-1--1-1-25
--00---0-2-1--11-
-0-0-1--1--12-0-5
0-01--2---1-0-12-
--1-02-33--22--2-
---002-1-1-0-0-10
----0---3---0--11

Generation = 8, Population = 24.
--0-2-21--32--0-6
--1-------------1
-----------------
-0---0---1-------
002---3-4--------
---1---2---1---2-
----1---------0--

*** Life<FredkinCell> 1x3 ***

Generation = 0, Population = 3.
000

*** Life<FredkinCell> 2x4 ***

Generation = 0, Population = 8.
0000
0000

*** Life<FredkinCell> 7x10 ***

Generation = 0, Population = 52.
0-0-0000-0
0000000-0-
0000-000--
00-0-00000
0-000-0000
00000-0-00
0---00000-

Generation = 1, Population = 36.
1010-1110-
11-11-1---
1-1101--00
1---0---1-
-----011-1
1-1110--1-
1-0---1---

Generation = 2, Population = 35.
-1--022-10
2--2--2--0
-022-2-0-1
200-100-20
--000--2--
2-----0---
2-1-0--00-

Generation = 3, Population = 31.
--1-1---2-
-1-3-03---
1-3-03--0-
311--11-3-
------1--1
30-1-0-01-
3----0-110

Generation = 4, Population = 32.
---0--21-0
------40--
2-42140011
---0----4-
--00-02-0-
-1---10--0
4--001--21

Generation = 5, Population = 26.
--1-12----
2-0-1-51--
--53--1122
3-1-------
--1-----1-
-----2-011
--11---13-

Generation = 6, Population = 33.
112--3-1--
---320---0
-064-4-2-3
------10-0
0020-0--2-
---11----2
-022011---

Generation = 7, Population = 37.
2-3--4--20
2-0--15-01
21--1513--
3----12-41
1---0----1
3-12-20---
41-31-21-1

Generation = 8, Population = 32.
3-4015-1--
-113-2-1--
32-42--42-
----1--05-
-02--0---2
-12--3----
-22-21-2--

Generation = 9, Population = 32.
-1-1---22-
2-24-3----
4-6---15-3
3-1-2-2---
1--0-122--
3232--00-2
4---3---3-

Generation = 10, Population = 31.
--42152330
31------01
----2--6--
--20-1-0-1
--2102--22
4-------1-
5-2--12---

Generation = 11, Population = 37.
3-5-----4-
42-4-351--
426---17--
-1---2-152
10-2--2---
52-21-002-
6--332323-

Generation = 12, Population = 33.
41---52--0
5----46---
--7--5-8-3
3--02----3
-1-3--32-2
6--3-311-2
7-2-4-43-1

Generation = 13, Population = 26.
-25-1--34-
6-2-25----
-2---61--4
----3-2-5-
1---------
7--414-2--
8--3-2---2

*** Life<FredkinCell> 10x14 ***

Generation = 0, Population = 44.
00-0--0-------
--0----0-00-0-
--000----0-00-
00---0---0--0-
-0-00----00--0
----0-------00
00--00-----00-
--0---0-------
0----0--0-00-0
------0-------

Generation = 1, Population = 66.
110-00---00-0-
0-100-----1010
0---1--00-0110
1---0-0-0---1-
-1-1----0-1001
0--------00---
11-0-1----01--
---000-00-0-00
-00-0-00--11--
0------00-00-0

Generation = 2, Population = 68.
---0-10-01-01-
-0--1--00-21--
-00--0-1---2--
2---1--0-0-0-0
0-----0010--12
10---0---11000
-2-102000-12-0
0---1-0-1---11
-1101011002---
--0-0---1-----

Generation = 3, Population = 69.
-10-0210-20-20
01---0---032--
--101----0--10
3-00----01-111
----0-11-1-0-3
--00-10-0-2111
13-2131--0----
-000--------2-
-22---2---3100
--101-0-2-0---

Generation = 4, Population = 67.
--1-13-1---031
1-1011-001431-
---12------2--
----1-0-12--22
0--1-0-2-21---
1-1---10--32--
2--3-4-0---2-0
-11--0---00-3-
0-30103100--11
----2-1---1-00

Generation = 5, Population = 68.
1120---2-2--42
---1----------
0---3-01---310
3--020-02---33
11--0--31---13
---0-1210---11
3-0--51100130-
02-0------1041
-2--214---312-
0-1-302-2-----

Generation = 6, Population = 75.
2---1-1---0053
-1-2--0--1-3--
10-1401---042-
--01-101-2--44
-20110-422-024
-0--0-3-1-3-2-
43-31-221-2410
--1----01-2--2
03---2-100-2--
-0---1---0100-

Generation = 7, Population = 74.
------22--11-4
12-31--00---10
2-12-12--015--
30-2-21-23-15-
1-122---3-11--
---0-14--14--1
5-04---32-3-2-
-2--10-12030-3
1---23--1--3-1
-11-3220---110

*** Life<FredkinCell> 9x13 ***

Generation = 0, Population = 48.
00-----0-00-0
0-000--------
0-0-0---0-0--
-0--00--0----
00-00--0--0-0
00-00-0-00---
----0000-0-00
--00---0-0---
0-0--0--0----

Generation = 2, Population = 49.
02-110----200
------0-1----
---1----200-0
-2----10210--
-200-0-0---00
0-0------001-
-1----20---2-
---2--021--1-
0--0----00000

Generation = 4, Population = 63.
----1-00--40-
-1--1--0-0---
112-100-4-00-
1-0011-24---0
0--21-1-00-0-
-0201--02-0-0
01010--0-10--
111-1-0-11-1-
--22-0----022

Generation = 6, Population = 58.
14--3-201---2
0---1-1-30-00
1--2----6---0
-40-1--46-1--
22-43-1---1--
1-4-31102--30
0103-1-2--02-
-33-3----1-30
---4----1-244

Generation = 8, Population = 61.
16---12011--4
020------2022
3222-1206-2--
2--13--66-3-1
2-165-321-30-
---0-3---223-
0-0---34---4-
---3-0--210--
0-2---01-1--4

*** Life<FredkinCell> 6x6 ***

Generation = 0, Population = 24.
-00--0
--0-00
0000-0
000000
00--0-
000--0

Generation = 2, Population = 14.
---102
-1----
02---0
2-----
-21--1
--21-0

Generation = 4, Population = 20.
0-1-0-
0--1--
02-010
41-1-0
-4--2-
-12-02
